<mxfile host="app.diagrams.net" modified="2024-07-01T19:47:49.680Z" agent="Mozilla/5.0 (Windows NT 10.0; Win64; x64) AppleWebKit/537.36 (KHTML, like Gecko) Chrome/126.0.0.0 Safari/537.36" etag="q2nbOFVI0Dsy8-MglIAp" version="24.6.4" type="device">
  <diagram id="R2lEEEUBdFMjLlhIrx00" name="Page-1">
    <mxGraphModel dx="1255" dy="1208" grid="1" gridSize="10" guides="1" tooltips="1" connect="1" arrows="1" fold="1" page="1" pageScale="1" pageWidth="850" pageHeight="1100" math="0" shadow="0" extFonts="Permanent Marker^https://fonts.googleapis.com/css?family=Permanent+Marker">
      <root>
        <mxCell id="0" />
        <mxCell id="1" parent="0" />
        <mxCell id="qut7VHhcx4R0QL9GQ9cC-54" style="edgeStyle=orthogonalEdgeStyle;rounded=0;orthogonalLoop=1;jettySize=auto;html=1;exitX=0.5;exitY=1.038;exitDx=0;exitDy=0;entryX=0.568;entryY=-0.001;entryDx=0;entryDy=0;exitPerimeter=0;entryPerimeter=0;strokeColor=default;endArrow=block;endFill=0;" edge="1" parent="1" source="qut7VHhcx4R0QL9GQ9cC-3" target="qut7VHhcx4R0QL9GQ9cC-10">
          <mxGeometry relative="1" as="geometry">
            <Array as="points">
              <mxPoint x="575" y="440" />
              <mxPoint x="470" y="440" />
              <mxPoint x="470" y="471" />
            </Array>
          </mxGeometry>
        </mxCell>
        <mxCell id="qut7VHhcx4R0QL9GQ9cC-1" value="class Product" style="swimlane;fontStyle=1;align=center;verticalAlign=middle;childLayout=stackLayout;horizontal=1;startSize=30;horizontalStack=0;resizeParent=1;resizeParentMax=0;resizeLast=0;collapsible=0;marginBottom=0;html=1;whiteSpace=wrap;" vertex="1" parent="1">
          <mxGeometry x="490" y="200" width="170" height="171" as="geometry" />
        </mxCell>
        <mxCell id="qut7VHhcx4R0QL9GQ9cC-2" value="  - string Name&lt;br style=&quot;font-size: 12px;&quot;&gt;- Money Price" style="text;html=1;strokeColor=default;fillColor=none;align=left;verticalAlign=middle;spacingLeft=4;spacingRight=4;overflow=hidden;rotatable=0;points=[[0,0.5],[1,0.5]];portConstraint=eastwest;whiteSpace=wrap;strokeWidth=1;fontStyle=0;fontSize=12;" vertex="1" parent="qut7VHhcx4R0QL9GQ9cC-1">
          <mxGeometry y="30" width="170" height="61" as="geometry" />
        </mxCell>
        <mxCell id="qut7VHhcx4R0QL9GQ9cC-3" value="+ void SetPrice(Money price)&lt;br style=&quot;font-size: 12px;&quot;&gt;  + void Display()" style="text;html=1;strokeColor=default;fillColor=none;align=left;verticalAlign=middle;spacingLeft=4;spacingRight=4;overflow=hidden;rotatable=0;points=[[0,0.5],[1,0.5]];portConstraint=eastwest;whiteSpace=wrap;strokeWidth=1;fontStyle=0;fontSize=12;" vertex="1" parent="qut7VHhcx4R0QL9GQ9cC-1">
          <mxGeometry y="91" width="170" height="80" as="geometry" />
        </mxCell>
        <mxCell id="qut7VHhcx4R0QL9GQ9cC-4" value="class Money" style="swimlane;fontStyle=1;align=center;verticalAlign=middle;childLayout=stackLayout;horizontal=1;startSize=30;horizontalStack=0;resizeParent=1;resizeParentMax=0;resizeLast=0;collapsible=0;marginBottom=0;html=1;whiteSpace=wrap;" vertex="1" parent="1">
          <mxGeometry x="-70" y="200" width="210" height="171" as="geometry" />
        </mxCell>
        <mxCell id="qut7VHhcx4R0QL9GQ9cC-5" value="+ int WholePart&lt;br&gt;+ int FractionalPart&lt;br&gt;+ int Coins" style="text;html=1;strokeColor=default;fillColor=none;align=left;verticalAlign=middle;spacingLeft=4;spacingRight=4;overflow=hidden;rotatable=0;points=[[0,0.5],[1,0.5]];portConstraint=eastwest;whiteSpace=wrap;strokeWidth=1;fontStyle=0;fontSize=12;" vertex="1" parent="qut7VHhcx4R0QL9GQ9cC-4">
          <mxGeometry y="30" width="210" height="61" as="geometry" />
        </mxCell>
        <mxCell id="qut7VHhcx4R0QL9GQ9cC-6" value="+ string MoneyString()&amp;nbsp;&lt;div&gt;+ Money operator -(Money instance1, Money instance2)&lt;br/&gt;  + decimal operator *(Money instance, decimal quantity)&lt;/div&gt;" style="text;html=1;strokeColor=default;fillColor=none;align=left;verticalAlign=middle;spacingLeft=4;spacingRight=4;overflow=hidden;rotatable=0;points=[[0,0.5],[1,0.5]];portConstraint=eastwest;whiteSpace=wrap;strokeWidth=1;fontStyle=0;fontSize=12;" vertex="1" parent="qut7VHhcx4R0QL9GQ9cC-4">
          <mxGeometry y="91" width="210" height="80" as="geometry" />
        </mxCell>
        <mxCell id="qut7VHhcx4R0QL9GQ9cC-7" value="class Warehouse " style="swimlane;fontStyle=1;align=center;verticalAlign=middle;childLayout=stackLayout;horizontal=1;startSize=30;horizontalStack=0;resizeParent=1;resizeParentMax=0;resizeLast=0;collapsible=0;marginBottom=0;html=1;whiteSpace=wrap;" vertex="1" parent="1">
          <mxGeometry x="340" y="680" width="190" height="130" as="geometry" />
        </mxCell>
        <mxCell id="qut7VHhcx4R0QL9GQ9cC-8" value="- List&amp;lt;WarehouseItem&amp;gt; storage" style="text;html=1;strokeColor=default;fillColor=none;align=left;verticalAlign=middle;spacingLeft=4;spacingRight=4;overflow=hidden;rotatable=0;points=[[0,0.5],[1,0.5]];portConstraint=eastwest;whiteSpace=wrap;strokeWidth=1;fontStyle=0;fontSize=12;" vertex="1" parent="qut7VHhcx4R0QL9GQ9cC-7">
          <mxGeometry y="30" width="190" height="40" as="geometry" />
        </mxCell>
        <mxCell id="qut7VHhcx4R0QL9GQ9cC-9" value="&amp;nbsp;+ void AddItemToWarehouse (WarehouseItem newItem)" style="text;html=1;strokeColor=default;fillColor=none;align=left;verticalAlign=middle;spacingLeft=4;spacingRight=4;overflow=hidden;rotatable=0;points=[[0,0.5],[1,0.5]];portConstraint=eastwest;whiteSpace=wrap;strokeWidth=1;fontStyle=0;fontSize=12;" vertex="1" parent="qut7VHhcx4R0QL9GQ9cC-7">
          <mxGeometry y="70" width="190" height="60" as="geometry" />
        </mxCell>
        <mxCell id="qut7VHhcx4R0QL9GQ9cC-10" value="class WarehouseItem extends Product " style="swimlane;fontStyle=1;align=center;verticalAlign=middle;childLayout=stackLayout;horizontal=1;startSize=30;horizontalStack=0;resizeParent=1;resizeParentMax=0;resizeLast=0;collapsible=0;marginBottom=0;html=1;whiteSpace=wrap;" vertex="1" parent="1">
          <mxGeometry x="340" y="471" width="230" height="110" as="geometry" />
        </mxCell>
        <mxCell id="qut7VHhcx4R0QL9GQ9cC-11" value="+ string Unit&lt;br/&gt;  + Money PurchasePrice&lt;br/&gt;  + decimal Quantity&lt;br/&gt;  + DateTime LastArrivalDate" style="text;html=1;strokeColor=default;fillColor=none;align=left;verticalAlign=middle;spacingLeft=4;spacingRight=4;overflow=hidden;rotatable=0;points=[[0,0.5],[1,0.5]];portConstraint=eastwest;whiteSpace=wrap;strokeWidth=1;fontStyle=0;fontSize=12;" vertex="1" parent="qut7VHhcx4R0QL9GQ9cC-10">
          <mxGeometry y="30" width="230" height="80" as="geometry" />
        </mxCell>
        <mxCell id="qut7VHhcx4R0QL9GQ9cC-58" style="edgeStyle=orthogonalEdgeStyle;rounded=0;orthogonalLoop=1;jettySize=auto;html=1;exitX=0.25;exitY=0;exitDx=0;exitDy=0;endArrow=diamond;endFill=1;" edge="1" parent="1" source="qut7VHhcx4R0QL9GQ9cC-13" target="qut7VHhcx4R0QL9GQ9cC-16">
          <mxGeometry relative="1" as="geometry">
            <Array as="points">
              <mxPoint x="665" y="580" />
              <mxPoint x="665" y="580" />
            </Array>
          </mxGeometry>
        </mxCell>
        <mxCell id="qut7VHhcx4R0QL9GQ9cC-13" value="class Bill  " style="swimlane;fontStyle=1;align=center;verticalAlign=middle;childLayout=stackLayout;horizontal=1;startSize=30;horizontalStack=0;resizeParent=1;resizeParentMax=0;resizeLast=0;collapsible=0;marginBottom=0;html=1;whiteSpace=wrap;" vertex="1" parent="1">
          <mxGeometry x="610" y="680" width="220" height="130" as="geometry" />
        </mxCell>
        <mxCell id="qut7VHhcx4R0QL9GQ9cC-14" value="- List&amp;lt;BillItem&amp;gt; billItems" style="text;html=1;strokeColor=default;fillColor=none;align=left;verticalAlign=middle;spacingLeft=4;spacingRight=4;overflow=hidden;rotatable=0;points=[[0,0.5],[1,0.5]];portConstraint=eastwest;whiteSpace=wrap;strokeWidth=1;fontStyle=0;fontSize=12;" vertex="1" parent="qut7VHhcx4R0QL9GQ9cC-13">
          <mxGeometry y="30" width="220" height="40" as="geometry" />
        </mxCell>
        <mxCell id="qut7VHhcx4R0QL9GQ9cC-15" value="  + void AddItemToBill(BillItem newItem)&lt;br/&gt;  + void DisplayWaybill()" style="text;html=1;strokeColor=default;fillColor=none;align=left;verticalAlign=middle;spacingLeft=4;spacingRight=4;overflow=hidden;rotatable=0;points=[[0,0.5],[1,0.5]];portConstraint=eastwest;whiteSpace=wrap;strokeWidth=1;fontStyle=0;fontSize=12;" vertex="1" parent="qut7VHhcx4R0QL9GQ9cC-13">
          <mxGeometry y="70" width="220" height="60" as="geometry" />
        </mxCell>
        <mxCell id="qut7VHhcx4R0QL9GQ9cC-16" value="class BillItem extends Product  " style="swimlane;fontStyle=1;align=center;verticalAlign=middle;childLayout=stackLayout;horizontal=1;startSize=30;horizontalStack=0;resizeParent=1;resizeParentMax=0;resizeLast=0;collapsible=0;marginBottom=0;html=1;whiteSpace=wrap;" vertex="1" parent="1">
          <mxGeometry x="610" y="471" width="220" height="70" as="geometry" />
        </mxCell>
        <mxCell id="qut7VHhcx4R0QL9GQ9cC-17" value="+ decimal Quantity" style="text;html=1;strokeColor=default;fillColor=none;align=left;verticalAlign=middle;spacingLeft=4;spacingRight=4;overflow=hidden;rotatable=0;points=[[0,0.5],[1,0.5]];portConstraint=eastwest;whiteSpace=wrap;strokeWidth=1;fontStyle=0;fontSize=12;" vertex="1" parent="qut7VHhcx4R0QL9GQ9cC-16">
          <mxGeometry y="30" width="220" height="40" as="geometry" />
        </mxCell>
        <mxCell id="qut7VHhcx4R0QL9GQ9cC-59" style="edgeStyle=orthogonalEdgeStyle;rounded=0;orthogonalLoop=1;jettySize=auto;html=1;exitX=0.501;exitY=1.04;exitDx=0;exitDy=0;exitPerimeter=0;" edge="1" parent="1">
          <mxGeometry relative="1" as="geometry">
            <mxPoint x="35.17000000000007" y="711.38" as="sourcePoint" />
            <mxPoint x="340" y="700" as="targetPoint" />
            <Array as="points">
              <mxPoint x="35" y="770" />
              <mxPoint x="150" y="770" />
              <mxPoint x="150" y="700" />
            </Array>
          </mxGeometry>
        </mxCell>
        <mxCell id="qut7VHhcx4R0QL9GQ9cC-60" style="edgeStyle=orthogonalEdgeStyle;rounded=0;orthogonalLoop=1;jettySize=auto;html=1;exitX=0.501;exitY=1.004;exitDx=0;exitDy=0;entryX=-0.005;entryY=0.137;entryDx=0;entryDy=0;exitPerimeter=0;entryPerimeter=0;" edge="1" parent="1" source="qut7VHhcx4R0QL9GQ9cC-21" target="qut7VHhcx4R0QL9GQ9cC-13">
          <mxGeometry relative="1" as="geometry">
            <Array as="points">
              <mxPoint x="35" y="850" />
              <mxPoint x="570" y="850" />
              <mxPoint x="570" y="698" />
            </Array>
          </mxGeometry>
        </mxCell>
        <mxCell id="qut7VHhcx4R0QL9GQ9cC-19" value="class Reporting " style="swimlane;fontStyle=1;align=center;verticalAlign=middle;childLayout=stackLayout;horizontal=1;startSize=30;horizontalStack=0;resizeParent=1;resizeParentMax=0;resizeLast=0;collapsible=0;marginBottom=0;html=1;whiteSpace=wrap;" vertex="1" parent="1">
          <mxGeometry x="-50" y="550" width="170" height="160" as="geometry" />
        </mxCell>
        <mxCell id="qut7VHhcx4R0QL9GQ9cC-20" value="- Warehouse warehouse&lt;br/&gt;  - Bill bill" style="text;html=1;strokeColor=default;fillColor=none;align=left;verticalAlign=middle;spacingLeft=4;spacingRight=4;overflow=hidden;rotatable=0;points=[[0,0.5],[1,0.5]];portConstraint=eastwest;whiteSpace=wrap;strokeWidth=1;fontStyle=0;fontSize=12;" vertex="1" parent="qut7VHhcx4R0QL9GQ9cC-19">
          <mxGeometry y="30" width="170" height="61" as="geometry" />
        </mxCell>
        <mxCell id="qut7VHhcx4R0QL9GQ9cC-21" value="+ void DisplayInventory()&lt;div&gt;+ void DisplayProfit()&lt;/div&gt;" style="text;html=1;strokeColor=default;fillColor=none;align=left;verticalAlign=middle;spacingLeft=4;spacingRight=4;overflow=hidden;rotatable=0;points=[[0,0.5],[1,0.5]];portConstraint=eastwest;whiteSpace=wrap;strokeWidth=1;fontStyle=0;fontSize=12;" vertex="1" parent="qut7VHhcx4R0QL9GQ9cC-19">
          <mxGeometry y="91" width="170" height="69" as="geometry" />
        </mxCell>
        <mxCell id="qut7VHhcx4R0QL9GQ9cC-47" style="edgeStyle=orthogonalEdgeStyle;rounded=0;orthogonalLoop=1;jettySize=auto;html=1;exitX=0.5;exitY=1;exitDx=0;exitDy=0;entryX=0.5;entryY=0;entryDx=0;entryDy=0;" edge="1" parent="1" source="qut7VHhcx4R0QL9GQ9cC-29" target="qut7VHhcx4R0QL9GQ9cC-4">
          <mxGeometry relative="1" as="geometry">
            <Array as="points">
              <mxPoint x="300" y="130" />
              <mxPoint x="300" y="165" />
              <mxPoint x="35" y="165" />
            </Array>
          </mxGeometry>
        </mxCell>
        <mxCell id="qut7VHhcx4R0QL9GQ9cC-48" style="edgeStyle=orthogonalEdgeStyle;rounded=0;orthogonalLoop=1;jettySize=auto;html=1;exitX=0.5;exitY=1;exitDx=0;exitDy=0;entryX=0.5;entryY=0;entryDx=0;entryDy=0;" edge="1" parent="1" source="qut7VHhcx4R0QL9GQ9cC-29" target="qut7VHhcx4R0QL9GQ9cC-1">
          <mxGeometry relative="1" as="geometry">
            <Array as="points">
              <mxPoint x="300" y="130" />
              <mxPoint x="300" y="165" />
              <mxPoint x="575" y="165" />
            </Array>
          </mxGeometry>
        </mxCell>
        <mxCell id="qut7VHhcx4R0QL9GQ9cC-49" style="edgeStyle=orthogonalEdgeStyle;rounded=0;orthogonalLoop=1;jettySize=auto;html=1;exitX=0.5;exitY=1;exitDx=0;exitDy=0;entryX=0.5;entryY=0;entryDx=0;entryDy=0;" edge="1" parent="1" source="qut7VHhcx4R0QL9GQ9cC-29" target="qut7VHhcx4R0QL9GQ9cC-19">
          <mxGeometry relative="1" as="geometry">
            <Array as="points">
              <mxPoint x="300" y="130" />
              <mxPoint x="300" y="420" />
              <mxPoint x="35" y="420" />
            </Array>
          </mxGeometry>
        </mxCell>
        <mxCell id="qut7VHhcx4R0QL9GQ9cC-50" style="edgeStyle=orthogonalEdgeStyle;rounded=0;orthogonalLoop=1;jettySize=auto;html=1;exitX=0.5;exitY=1;exitDx=0;exitDy=0;entryX=0.5;entryY=0;entryDx=0;entryDy=0;" edge="1" parent="1" source="qut7VHhcx4R0QL9GQ9cC-29" target="qut7VHhcx4R0QL9GQ9cC-10">
          <mxGeometry relative="1" as="geometry">
            <Array as="points">
              <mxPoint x="300" y="130" />
              <mxPoint x="300" y="410" />
              <mxPoint x="455" y="410" />
            </Array>
          </mxGeometry>
        </mxCell>
        <mxCell id="qut7VHhcx4R0QL9GQ9cC-51" style="edgeStyle=orthogonalEdgeStyle;rounded=0;orthogonalLoop=1;jettySize=auto;html=1;exitX=0.5;exitY=1;exitDx=0;exitDy=0;entryX=0.5;entryY=0;entryDx=0;entryDy=0;" edge="1" parent="1" source="qut7VHhcx4R0QL9GQ9cC-29" target="qut7VHhcx4R0QL9GQ9cC-16">
          <mxGeometry relative="1" as="geometry">
            <Array as="points">
              <mxPoint x="300" y="130" />
              <mxPoint x="300" y="410" />
              <mxPoint x="720" y="410" />
            </Array>
          </mxGeometry>
        </mxCell>
        <mxCell id="qut7VHhcx4R0QL9GQ9cC-52" style="edgeStyle=orthogonalEdgeStyle;rounded=0;orthogonalLoop=1;jettySize=auto;html=1;exitX=0.5;exitY=1;exitDx=0;exitDy=0;entryX=0.5;entryY=0;entryDx=0;entryDy=0;" edge="1" parent="1" source="qut7VHhcx4R0QL9GQ9cC-29" target="qut7VHhcx4R0QL9GQ9cC-7">
          <mxGeometry relative="1" as="geometry">
            <Array as="points">
              <mxPoint x="300" y="130" />
              <mxPoint x="300" y="650" />
              <mxPoint x="435" y="650" />
            </Array>
          </mxGeometry>
        </mxCell>
        <mxCell id="qut7VHhcx4R0QL9GQ9cC-53" style="edgeStyle=orthogonalEdgeStyle;rounded=0;orthogonalLoop=1;jettySize=auto;html=1;exitX=0.5;exitY=1;exitDx=0;exitDy=0;entryX=0.5;entryY=0;entryDx=0;entryDy=0;" edge="1" parent="1" source="qut7VHhcx4R0QL9GQ9cC-29" target="qut7VHhcx4R0QL9GQ9cC-13">
          <mxGeometry relative="1" as="geometry">
            <Array as="points">
              <mxPoint x="300" y="130" />
              <mxPoint x="300" y="650" />
              <mxPoint x="720" y="650" />
            </Array>
          </mxGeometry>
        </mxCell>
        <mxCell id="qut7VHhcx4R0QL9GQ9cC-29" value="class Program" style="swimlane;fontStyle=1;align=center;verticalAlign=middle;childLayout=stackLayout;horizontal=1;startSize=30;horizontalStack=0;resizeParent=1;resizeParentMax=0;resizeLast=0;collapsible=0;marginBottom=0;html=1;whiteSpace=wrap;" vertex="1" parent="1">
          <mxGeometry x="220" y="100" width="170" height="30" as="geometry" />
        </mxCell>
        <mxCell id="qut7VHhcx4R0QL9GQ9cC-55" style="edgeStyle=orthogonalEdgeStyle;rounded=0;orthogonalLoop=1;jettySize=auto;html=1;exitX=0.5;exitY=1.051;exitDx=0;exitDy=0;entryX=0.424;entryY=0.013;entryDx=0;entryDy=0;entryPerimeter=0;exitPerimeter=0;endArrow=block;endFill=0;" edge="1" parent="1" source="qut7VHhcx4R0QL9GQ9cC-3" target="qut7VHhcx4R0QL9GQ9cC-16">
          <mxGeometry relative="1" as="geometry">
            <Array as="points">
              <mxPoint x="575" y="440" />
              <mxPoint x="703" y="440" />
            </Array>
          </mxGeometry>
        </mxCell>
        <mxCell id="qut7VHhcx4R0QL9GQ9cC-56" style="edgeStyle=orthogonalEdgeStyle;rounded=0;orthogonalLoop=1;jettySize=auto;html=1;exitX=0.25;exitY=0;exitDx=0;exitDy=0;entryX=0.207;entryY=0.988;entryDx=0;entryDy=0;entryPerimeter=0;endArrow=diamond;endFill=1;" edge="1" parent="1" source="qut7VHhcx4R0QL9GQ9cC-7" target="qut7VHhcx4R0QL9GQ9cC-11">
          <mxGeometry relative="1" as="geometry" />
        </mxCell>
      </root>
    </mxGraphModel>
  </diagram>
</mxfile>
