<mxfile host="app.diagrams.net" agent="Mozilla/5.0 (Windows NT 10.0; Win64; x64) AppleWebKit/537.36 (KHTML, like Gecko) Chrome/128.0.0.0 Safari/537.36" version="24.7.8">
  <diagram id="R2lEEEUBdFMjLlhIrx00" name="Page-1">
    <mxGraphModel dx="2524" dy="784" grid="1" gridSize="10" guides="1" tooltips="1" connect="1" arrows="1" fold="1" page="1" pageScale="1" pageWidth="850" pageHeight="1100" math="0" shadow="0" extFonts="Permanent Marker^https://fonts.googleapis.com/css?family=Permanent+Marker">
      <root>
        <mxCell id="0" />
        <mxCell id="1" parent="0" />
        <mxCell id="hWyjL5gWHQmnTy1E7lcb-1" value="IDevice" style="swimlane;fontStyle=1;align=center;verticalAlign=middle;childLayout=stackLayout;horizontal=1;startSize=29;horizontalStack=0;resizeParent=1;resizeParentMax=0;resizeLast=0;collapsible=0;marginBottom=0;html=1;whiteSpace=wrap;" vertex="1" parent="1">
          <mxGeometry x="170" y="50" width="140" height="54" as="geometry" />
        </mxCell>
        <mxCell id="hWyjL5gWHQmnTy1E7lcb-3" value="+GetDeviceInfo()" style="text;html=1;strokeColor=none;fillColor=none;align=left;verticalAlign=middle;spacingLeft=4;spacingRight=4;overflow=hidden;rotatable=0;points=[[0,0.5],[1,0.5]];portConstraint=eastwest;whiteSpace=wrap;" vertex="1" parent="hWyjL5gWHQmnTy1E7lcb-1">
          <mxGeometry y="29" width="140" height="25" as="geometry" />
        </mxCell>
        <mxCell id="hWyjL5gWHQmnTy1E7lcb-4" value="Laptop" style="swimlane;fontStyle=1;align=center;verticalAlign=middle;childLayout=stackLayout;horizontal=1;startSize=29;horizontalStack=0;resizeParent=1;resizeParentMax=0;resizeLast=0;collapsible=0;marginBottom=0;html=1;whiteSpace=wrap;" vertex="1" parent="1">
          <mxGeometry x="-150" y="230" width="140" height="79" as="geometry" />
        </mxCell>
        <mxCell id="hWyjL5gWHQmnTy1E7lcb-5" value="-brand" style="text;html=1;strokeColor=none;fillColor=none;align=left;verticalAlign=middle;spacingLeft=4;spacingRight=4;overflow=hidden;rotatable=0;points=[[0,0.5],[1,0.5]];portConstraint=eastwest;whiteSpace=wrap;" vertex="1" parent="hWyjL5gWHQmnTy1E7lcb-4">
          <mxGeometry y="29" width="140" height="25" as="geometry" />
        </mxCell>
        <mxCell id="hWyjL5gWHQmnTy1E7lcb-6" value="+GetDeviceInfo()" style="text;html=1;strokeColor=none;fillColor=none;align=left;verticalAlign=middle;spacingLeft=4;spacingRight=4;overflow=hidden;rotatable=0;points=[[0,0.5],[1,0.5]];portConstraint=eastwest;whiteSpace=wrap;" vertex="1" parent="hWyjL5gWHQmnTy1E7lcb-4">
          <mxGeometry y="54" width="140" height="25" as="geometry" />
        </mxCell>
        <mxCell id="hWyjL5gWHQmnTy1E7lcb-7" value="Netbook" style="swimlane;fontStyle=1;align=center;verticalAlign=middle;childLayout=stackLayout;horizontal=1;startSize=29;horizontalStack=0;resizeParent=1;resizeParentMax=0;resizeLast=0;collapsible=0;marginBottom=0;html=1;whiteSpace=wrap;" vertex="1" parent="1">
          <mxGeometry x="70" y="230" width="140" height="79" as="geometry" />
        </mxCell>
        <mxCell id="hWyjL5gWHQmnTy1E7lcb-8" value="-brand" style="text;html=1;strokeColor=none;fillColor=none;align=left;verticalAlign=middle;spacingLeft=4;spacingRight=4;overflow=hidden;rotatable=0;points=[[0,0.5],[1,0.5]];portConstraint=eastwest;whiteSpace=wrap;" vertex="1" parent="hWyjL5gWHQmnTy1E7lcb-7">
          <mxGeometry y="29" width="140" height="25" as="geometry" />
        </mxCell>
        <mxCell id="hWyjL5gWHQmnTy1E7lcb-9" value="+GetDeviceInfo()" style="text;html=1;strokeColor=none;fillColor=none;align=left;verticalAlign=middle;spacingLeft=4;spacingRight=4;overflow=hidden;rotatable=0;points=[[0,0.5],[1,0.5]];portConstraint=eastwest;whiteSpace=wrap;" vertex="1" parent="hWyjL5gWHQmnTy1E7lcb-7">
          <mxGeometry y="54" width="140" height="25" as="geometry" />
        </mxCell>
        <mxCell id="hWyjL5gWHQmnTy1E7lcb-10" value="EBook" style="swimlane;fontStyle=1;align=center;verticalAlign=middle;childLayout=stackLayout;horizontal=1;startSize=29;horizontalStack=0;resizeParent=1;resizeParentMax=0;resizeLast=0;collapsible=0;marginBottom=0;html=1;whiteSpace=wrap;" vertex="1" parent="1">
          <mxGeometry x="265" y="230" width="140" height="79" as="geometry" />
        </mxCell>
        <mxCell id="hWyjL5gWHQmnTy1E7lcb-11" value="-brand" style="text;html=1;strokeColor=none;fillColor=none;align=left;verticalAlign=middle;spacingLeft=4;spacingRight=4;overflow=hidden;rotatable=0;points=[[0,0.5],[1,0.5]];portConstraint=eastwest;whiteSpace=wrap;" vertex="1" parent="hWyjL5gWHQmnTy1E7lcb-10">
          <mxGeometry y="29" width="140" height="25" as="geometry" />
        </mxCell>
        <mxCell id="hWyjL5gWHQmnTy1E7lcb-12" value="+GetDeviceInfo()" style="text;html=1;strokeColor=none;fillColor=none;align=left;verticalAlign=middle;spacingLeft=4;spacingRight=4;overflow=hidden;rotatable=0;points=[[0,0.5],[1,0.5]];portConstraint=eastwest;whiteSpace=wrap;" vertex="1" parent="hWyjL5gWHQmnTy1E7lcb-10">
          <mxGeometry y="54" width="140" height="25" as="geometry" />
        </mxCell>
        <mxCell id="hWyjL5gWHQmnTy1E7lcb-13" value="Smartphone" style="swimlane;fontStyle=1;align=center;verticalAlign=middle;childLayout=stackLayout;horizontal=1;startSize=29;horizontalStack=0;resizeParent=1;resizeParentMax=0;resizeLast=0;collapsible=0;marginBottom=0;html=1;whiteSpace=wrap;" vertex="1" parent="1">
          <mxGeometry x="485" y="230" width="140" height="79" as="geometry" />
        </mxCell>
        <mxCell id="hWyjL5gWHQmnTy1E7lcb-14" value="-brand" style="text;html=1;strokeColor=none;fillColor=none;align=left;verticalAlign=middle;spacingLeft=4;spacingRight=4;overflow=hidden;rotatable=0;points=[[0,0.5],[1,0.5]];portConstraint=eastwest;whiteSpace=wrap;" vertex="1" parent="hWyjL5gWHQmnTy1E7lcb-13">
          <mxGeometry y="29" width="140" height="25" as="geometry" />
        </mxCell>
        <mxCell id="hWyjL5gWHQmnTy1E7lcb-15" value="+GetDeviceInfo()" style="text;html=1;strokeColor=none;fillColor=none;align=left;verticalAlign=middle;spacingLeft=4;spacingRight=4;overflow=hidden;rotatable=0;points=[[0,0.5],[1,0.5]];portConstraint=eastwest;whiteSpace=wrap;" vertex="1" parent="hWyjL5gWHQmnTy1E7lcb-13">
          <mxGeometry y="54" width="140" height="25" as="geometry" />
        </mxCell>
        <mxCell id="hWyjL5gWHQmnTy1E7lcb-19" style="edgeStyle=orthogonalEdgeStyle;rounded=0;orthogonalLoop=1;jettySize=auto;html=1;entryX=0.5;entryY=1.24;entryDx=0;entryDy=0;entryPerimeter=0;" edge="1" parent="1" source="hWyjL5gWHQmnTy1E7lcb-4" target="hWyjL5gWHQmnTy1E7lcb-3">
          <mxGeometry relative="1" as="geometry">
            <Array as="points">
              <mxPoint x="-80" y="190" />
              <mxPoint x="30" y="190" />
              <mxPoint x="30" y="110" />
            </Array>
          </mxGeometry>
        </mxCell>
        <mxCell id="hWyjL5gWHQmnTy1E7lcb-20" style="edgeStyle=orthogonalEdgeStyle;rounded=0;orthogonalLoop=1;jettySize=auto;html=1;entryX=0.471;entryY=1.12;entryDx=0;entryDy=0;entryPerimeter=0;" edge="1" parent="1" source="hWyjL5gWHQmnTy1E7lcb-7" target="hWyjL5gWHQmnTy1E7lcb-3">
          <mxGeometry relative="1" as="geometry">
            <Array as="points">
              <mxPoint x="140" y="160" />
              <mxPoint x="236" y="160" />
            </Array>
          </mxGeometry>
        </mxCell>
        <mxCell id="hWyjL5gWHQmnTy1E7lcb-21" style="edgeStyle=orthogonalEdgeStyle;rounded=0;orthogonalLoop=1;jettySize=auto;html=1;entryX=0.471;entryY=1.12;entryDx=0;entryDy=0;entryPerimeter=0;exitX=0.5;exitY=0;exitDx=0;exitDy=0;" edge="1" parent="1" source="hWyjL5gWHQmnTy1E7lcb-10" target="hWyjL5gWHQmnTy1E7lcb-3">
          <mxGeometry relative="1" as="geometry">
            <Array as="points">
              <mxPoint x="335" y="170" />
              <mxPoint x="240" y="170" />
              <mxPoint x="240" y="110" />
              <mxPoint x="236" y="110" />
            </Array>
          </mxGeometry>
        </mxCell>
        <mxCell id="hWyjL5gWHQmnTy1E7lcb-22" style="edgeStyle=orthogonalEdgeStyle;rounded=0;orthogonalLoop=1;jettySize=auto;html=1;entryX=0.493;entryY=1.04;entryDx=0;entryDy=0;entryPerimeter=0;" edge="1" parent="1" source="hWyjL5gWHQmnTy1E7lcb-13" target="hWyjL5gWHQmnTy1E7lcb-3">
          <mxGeometry relative="1" as="geometry">
            <Array as="points">
              <mxPoint x="555" y="120" />
              <mxPoint x="239" y="120" />
            </Array>
          </mxGeometry>
        </mxCell>
        <mxCell id="hWyjL5gWHQmnTy1E7lcb-23" value="DeviceFactory" style="swimlane;fontStyle=1;align=center;verticalAlign=middle;childLayout=stackLayout;horizontal=1;startSize=29;horizontalStack=0;resizeParent=1;resizeParentMax=0;resizeLast=0;collapsible=0;marginBottom=0;html=1;whiteSpace=wrap;" vertex="1" parent="1">
          <mxGeometry x="172.5" y="410" width="140" height="54" as="geometry" />
        </mxCell>
        <mxCell id="hWyjL5gWHQmnTy1E7lcb-24" value="+CreateDevice()" style="text;html=1;strokeColor=none;fillColor=none;align=left;verticalAlign=middle;spacingLeft=4;spacingRight=4;overflow=hidden;rotatable=0;points=[[0,0.5],[1,0.5]];portConstraint=eastwest;whiteSpace=wrap;" vertex="1" parent="hWyjL5gWHQmnTy1E7lcb-23">
          <mxGeometry y="29" width="140" height="25" as="geometry" />
        </mxCell>
        <mxCell id="hWyjL5gWHQmnTy1E7lcb-25" value="LaptopFactory" style="swimlane;fontStyle=1;align=center;verticalAlign=middle;childLayout=stackLayout;horizontal=1;startSize=29;horizontalStack=0;resizeParent=1;resizeParentMax=0;resizeLast=0;collapsible=0;marginBottom=0;html=1;whiteSpace=wrap;" vertex="1" parent="1">
          <mxGeometry x="-147.5" y="590" width="140" height="54" as="geometry" />
        </mxCell>
        <mxCell id="hWyjL5gWHQmnTy1E7lcb-27" value="+CreateDevice()" style="text;html=1;strokeColor=none;fillColor=none;align=left;verticalAlign=middle;spacingLeft=4;spacingRight=4;overflow=hidden;rotatable=0;points=[[0,0.5],[1,0.5]];portConstraint=eastwest;whiteSpace=wrap;" vertex="1" parent="hWyjL5gWHQmnTy1E7lcb-25">
          <mxGeometry y="29" width="140" height="25" as="geometry" />
        </mxCell>
        <mxCell id="hWyjL5gWHQmnTy1E7lcb-28" value="NetbookFactory" style="swimlane;fontStyle=1;align=center;verticalAlign=middle;childLayout=stackLayout;horizontal=1;startSize=29;horizontalStack=0;resizeParent=1;resizeParentMax=0;resizeLast=0;collapsible=0;marginBottom=0;html=1;whiteSpace=wrap;" vertex="1" parent="1">
          <mxGeometry x="72.5" y="590" width="140" height="54" as="geometry" />
        </mxCell>
        <mxCell id="hWyjL5gWHQmnTy1E7lcb-30" value="+CreateDevice()" style="text;html=1;strokeColor=none;fillColor=none;align=left;verticalAlign=middle;spacingLeft=4;spacingRight=4;overflow=hidden;rotatable=0;points=[[0,0.5],[1,0.5]];portConstraint=eastwest;whiteSpace=wrap;" vertex="1" parent="hWyjL5gWHQmnTy1E7lcb-28">
          <mxGeometry y="29" width="140" height="25" as="geometry" />
        </mxCell>
        <mxCell id="hWyjL5gWHQmnTy1E7lcb-31" value="EBookFactory" style="swimlane;fontStyle=1;align=center;verticalAlign=middle;childLayout=stackLayout;horizontal=1;startSize=29;horizontalStack=0;resizeParent=1;resizeParentMax=0;resizeLast=0;collapsible=0;marginBottom=0;html=1;whiteSpace=wrap;" vertex="1" parent="1">
          <mxGeometry x="267.5" y="590" width="140" height="54" as="geometry" />
        </mxCell>
        <mxCell id="hWyjL5gWHQmnTy1E7lcb-33" value="+CreateDevice()" style="text;html=1;strokeColor=none;fillColor=none;align=left;verticalAlign=middle;spacingLeft=4;spacingRight=4;overflow=hidden;rotatable=0;points=[[0,0.5],[1,0.5]];portConstraint=eastwest;whiteSpace=wrap;" vertex="1" parent="hWyjL5gWHQmnTy1E7lcb-31">
          <mxGeometry y="29" width="140" height="25" as="geometry" />
        </mxCell>
        <mxCell id="hWyjL5gWHQmnTy1E7lcb-34" value="SmartphoneFactory" style="swimlane;fontStyle=1;align=center;verticalAlign=middle;childLayout=stackLayout;horizontal=1;startSize=29;horizontalStack=0;resizeParent=1;resizeParentMax=0;resizeLast=0;collapsible=0;marginBottom=0;html=1;whiteSpace=wrap;" vertex="1" parent="1">
          <mxGeometry x="487.5" y="590" width="140" height="54" as="geometry" />
        </mxCell>
        <mxCell id="hWyjL5gWHQmnTy1E7lcb-36" value="+CreateDevice()" style="text;html=1;strokeColor=none;fillColor=none;align=left;verticalAlign=middle;spacingLeft=4;spacingRight=4;overflow=hidden;rotatable=0;points=[[0,0.5],[1,0.5]];portConstraint=eastwest;whiteSpace=wrap;" vertex="1" parent="hWyjL5gWHQmnTy1E7lcb-34">
          <mxGeometry y="29" width="140" height="25" as="geometry" />
        </mxCell>
        <mxCell id="hWyjL5gWHQmnTy1E7lcb-37" style="edgeStyle=orthogonalEdgeStyle;rounded=0;orthogonalLoop=1;jettySize=auto;html=1;entryX=0.5;entryY=1.24;entryDx=0;entryDy=0;entryPerimeter=0;" edge="1" parent="1" source="hWyjL5gWHQmnTy1E7lcb-25" target="hWyjL5gWHQmnTy1E7lcb-24">
          <mxGeometry relative="1" as="geometry">
            <Array as="points">
              <mxPoint x="-77" y="550" />
              <mxPoint x="33" y="550" />
              <mxPoint x="33" y="490" />
              <mxPoint x="243" y="490" />
            </Array>
          </mxGeometry>
        </mxCell>
        <mxCell id="hWyjL5gWHQmnTy1E7lcb-38" style="edgeStyle=orthogonalEdgeStyle;rounded=0;orthogonalLoop=1;jettySize=auto;html=1;entryX=0.471;entryY=1.12;entryDx=0;entryDy=0;entryPerimeter=0;" edge="1" parent="1" source="hWyjL5gWHQmnTy1E7lcb-28" target="hWyjL5gWHQmnTy1E7lcb-24">
          <mxGeometry relative="1" as="geometry">
            <Array as="points">
              <mxPoint x="142.5" y="520" />
              <mxPoint x="238.5" y="520" />
            </Array>
          </mxGeometry>
        </mxCell>
        <mxCell id="hWyjL5gWHQmnTy1E7lcb-39" style="edgeStyle=orthogonalEdgeStyle;rounded=0;orthogonalLoop=1;jettySize=auto;html=1;entryX=0.471;entryY=1.12;entryDx=0;entryDy=0;entryPerimeter=0;exitX=0.5;exitY=0;exitDx=0;exitDy=0;" edge="1" parent="1" source="hWyjL5gWHQmnTy1E7lcb-31" target="hWyjL5gWHQmnTy1E7lcb-24">
          <mxGeometry relative="1" as="geometry">
            <Array as="points">
              <mxPoint x="337.5" y="530" />
              <mxPoint x="242.5" y="530" />
              <mxPoint x="242.5" y="470" />
              <mxPoint x="238.5" y="470" />
            </Array>
          </mxGeometry>
        </mxCell>
        <mxCell id="hWyjL5gWHQmnTy1E7lcb-40" style="edgeStyle=orthogonalEdgeStyle;rounded=0;orthogonalLoop=1;jettySize=auto;html=1;entryX=0.493;entryY=1.04;entryDx=0;entryDy=0;entryPerimeter=0;" edge="1" parent="1" source="hWyjL5gWHQmnTy1E7lcb-34" target="hWyjL5gWHQmnTy1E7lcb-24">
          <mxGeometry relative="1" as="geometry">
            <Array as="points">
              <mxPoint x="557.5" y="480" />
              <mxPoint x="241.5" y="480" />
            </Array>
          </mxGeometry>
        </mxCell>
        <mxCell id="hWyjL5gWHQmnTy1E7lcb-41" style="edgeStyle=orthogonalEdgeStyle;rounded=0;orthogonalLoop=1;jettySize=auto;html=1;entryX=0.457;entryY=1.12;entryDx=0;entryDy=0;entryPerimeter=0;" edge="1" parent="1" source="hWyjL5gWHQmnTy1E7lcb-23" target="hWyjL5gWHQmnTy1E7lcb-6">
          <mxGeometry relative="1" as="geometry">
            <Array as="points">
              <mxPoint x="243" y="390" />
              <mxPoint x="-86" y="390" />
            </Array>
          </mxGeometry>
        </mxCell>
        <mxCell id="hWyjL5gWHQmnTy1E7lcb-42" style="edgeStyle=orthogonalEdgeStyle;rounded=0;orthogonalLoop=1;jettySize=auto;html=1;entryX=0.5;entryY=1.04;entryDx=0;entryDy=0;entryPerimeter=0;" edge="1" parent="1" source="hWyjL5gWHQmnTy1E7lcb-23" target="hWyjL5gWHQmnTy1E7lcb-9">
          <mxGeometry relative="1" as="geometry" />
        </mxCell>
        <mxCell id="hWyjL5gWHQmnTy1E7lcb-43" style="edgeStyle=orthogonalEdgeStyle;rounded=0;orthogonalLoop=1;jettySize=auto;html=1;entryX=0.543;entryY=1.08;entryDx=0;entryDy=0;entryPerimeter=0;" edge="1" parent="1" source="hWyjL5gWHQmnTy1E7lcb-23" target="hWyjL5gWHQmnTy1E7lcb-12">
          <mxGeometry relative="1" as="geometry">
            <Array as="points">
              <mxPoint x="243" y="340" />
              <mxPoint x="341" y="340" />
            </Array>
          </mxGeometry>
        </mxCell>
        <mxCell id="hWyjL5gWHQmnTy1E7lcb-44" style="edgeStyle=orthogonalEdgeStyle;rounded=0;orthogonalLoop=1;jettySize=auto;html=1;entryX=0.536;entryY=1.04;entryDx=0;entryDy=0;entryPerimeter=0;" edge="1" parent="1" source="hWyjL5gWHQmnTy1E7lcb-23" target="hWyjL5gWHQmnTy1E7lcb-15">
          <mxGeometry relative="1" as="geometry">
            <Array as="points">
              <mxPoint x="243" y="380" />
              <mxPoint x="560" y="380" />
            </Array>
          </mxGeometry>
        </mxCell>
      </root>
    </mxGraphModel>
  </diagram>
</mxfile>
